{
	"source": "UE",
	"applications": [
		{
			"app_key": "application.generated.ue.live_tv-17155196.ue4editor.exe",
			"launch_type": "url",
			"url": "steam://launch/",
			"action_manifest_path": "D:/UnrealProjects/LiveTV/Config/SteamVRBindings/steamvr_manifest.json",
			"strings":
			{
				"en_us":
				{
					"name": "Live_TV-17155196 [UE Editor]"
				}
			}
		}
	]
}